%YAML 1.1
%TAG !u! tag:unity3d.com,2011:
--- !u!1045 &1
EditorBuildSettings:
  m_ObjectHideFlags: 0
  serializedVersion: 2
  m_Scenes:
  - enabled: 1
    path: Assets/Scenes/MainMenu.unity
    guid: 93ca5e5578a1a764b952156b8e14fe96
  - enabled: 1
    path: Assets/Scenes/PauseGame.unity
    guid: 713a6d062a01a474882c78d94cb0e856
  - enabled: 1
    path: Assets/Scenes/MainScene.unity
    guid: 3dc386d977741404b9a605f027645032
  m_configObjects:
    com.unity.input.settings: {fileID: 11400000, guid: 0ba921ded39ec4c2f915f1a2d8a920b7,
      type: 2}
