%YAML 1.1
%TAG !u! tag:unity3d.com,2011:
--- !u!162 &1
EditorUserSettings:
  m_ObjectHideFlags: 0
  serializedVersion: 4
  m_ConfigSettings:
    RecentlyUsedScenePath-0:
      value: 22424703114646680e0b0227036c701c12572b2929262323621e4d62afb06576f7e93ffdfe
      flags: 0
    RecentlyUsedScenePath-1:
      value: 22424703114646680e0b0227036c72111f192b292926230f0c390f3aeec63b37eef413edee2e3633374cfa320d2a18
      flags: 0
    RecentlyUsedScenePath-2:
      value: 22424703114646680e0b0227036c72111f192b292926230f0c390f3aeeb1113cebf33fe6e9742a323016f6
      flags: 0
    RecentlyUsedScenePath-3:
      value: 22424703114646680e0b0227036c7e02151f113c2967116075643c23f0e93869c7e33ffdee3531722c0ce6281d
      flags: 0
    RecentlyUsedScenePath-4:
      value: 22424703114646781f0b082b04301105181e0c33
      flags: 0
    RecentlyUsedScenePath-5:
      value: 22424703114646680e0b0227036c7115013a19232205233e3867083debf42d
      flags: 0
    RecentlyUsedScenePath-6:
      value: 22424703114646680e0b0227036c7c1f041257072d212870012c0b36eeaf1939ebe91aecf13f33722c0ce6281d
      flags: 0
    RecentlyUsedScenePath-7:
      value: 22424703114646680e0b0227036c72111f19352f223d68252320092a
      flags: 0
    RecentlyUsedScenePath-8:
      value: 22424703114646680e0b0227036c6f1103041d0d2d25237e38271427fb
      flags: 0
    RecentlyUsedScenePath-9:
      value: 22424703114646680e0b0227036c72111f192b292926237e38271427fb
      flags: 0
    vcSharedLogLevel:
      value: 0d5e400f0650
      flags: 0
  m_VCAutomaticAdd: 1
  m_VCDebugCom: 0
  m_VCDebugCmd: 0
  m_VCDebugOut: 0
  m_SemanticMergeMode: 2
  m_VCShowFailedCheckout: 1
  m_VCOverwriteFailedCheckoutAssets: 1
  m_VCProjectOverlayIcons: 1
  m_VCHierarchyOverlayIcons: 1
  m_VCOtherOverlayIcons: 1
  m_VCAllowAsyncUpdate: 1
